.................
----------------------------------------------------------------------
Ran 17 tests in 0.373s

OK
Name             Stmts   Miss Branch BrPart  Cover   Missing
------------------------------------------------------------
Collatz.py          38      0     12      0   100%
TestCollatz.py      72      0      0      0   100%
------------------------------------------------------------
TOTAL              110      0     12      0   100%