1 10 20
100 200 125
201 210 89
900 1000 174
1 10 20
10 1 20
50 100 119
100 50 119
100 150 122
150 100 122
500 1000 179
1000 500 179
20 20 8
1 500 144
500 25 144
33 99 119
99 33 119
1000 1001 143
99 100 26
100 99 26
1010 926 174
73 37 116
37 73 116
888 996 174
385 726 171
16 593 144
419 185 144
188 469 144
420 821 171
382 81 144
969 435 179
945 108 179
198 614 144
543 659 145
419 186 144
121 108 114
598 526 137
442 368 134
152 607 144
927 166 179
591 849 171
220 979 179
411 352 134
536 332 142
637 407 142
582 206 144
573 181 144
993 785 179
946 858 179
745 224 171
275 440 144
741 202 171
768 697 171
166 320 131
170 421 144
737 642 171
792 386 171
10 782 171
196 355 144
792 217 171
642 223 144
221 447 144
504 884 179
974 741 179
62 750 171
97 664 145
647 700 145
819 435 171
661 677 145
539 994 179
767 867 153
757 737 140
420 673 145
979 684 179
490 503 142
356 96 144
491 164 144
478 37 144
277 539 144
489 204 144
750 437 171
541 614 137
113 164 122
584 379 142
269 561 144
179 65 125
795 146 171
615 968 179
430 481 129
558 196 144
621 942 179
35 487 144
534 934 179
38 307 128
710 989 179
553 35 144
138 26 122
176 887 179
164 982 179
14 407 144
783 446 171
701 894 179
430 596 142
886 387 179
366 333 126
616 462 142
211 647 144
381 699 145
483 325 144
47 364 144
131 391 144
192 536 144
493 421 142
494 215 144
211 428 144
829 369 171
552 77 144
969 120 179
201 278 128
506 962 179
409 724 171
166 754 171
139 486 144
