1 10 20
100 200 125
201 210 89
900 1000 174
1000 1001 143
1 10 20
1 1 1
35 69 113
1 2 2
3089 3088 124
2029 319 182
3591 4021 238
10 41 112
9999 10000 92
10001 10000 180
69 420 144
391 104 144
100000 100000 129
49 1 112
1049 1069 169
401 404 28
40201 40270 244
40200 40201 120
229 191 120
300 300 17
1010 1011 63
5920 5941 187
550 999 179
494 1 144
5959 5960 125
1 11 20
2020 2020 64
4910 5000 210
404 405 28
78705 78759 201
22207 22209 207
571 295 144
50 95 116
207 2401 183
3010 3000 155
696 969 179
3818 4000 189
595 701 145
757 777 153
1 4 8
1010 1010 63
444 666 145
1 100 119
9 8 20
60 69 108
420 421 41
900 901 55
818 999 179
111 112 70
756 819 153
400 401 28
9 12 20
1789 4120 238
4040 1929 238
111 111 70
4885 5001 210
1029 4049 238
54398 49390 340
94949 99999 328
1200 1029 182
499 401 142
1924 4012 238
5991 5050 236
59292 61224 335
5050 5858 236
1222 1224 133
777 777 34
59810 51922 340
5591 2929 238
40120 40402 244
2020 1020 182
3070 3090 155
3080 3090 155
2070 3080 217
4858 4012 215
2012 2020 113
2000 2020 144
1 44 112
390 3090 217
3939 2029 238
32 39 35
5859 5210 236
43024 40550 288
41290 49512 314
99 292 128
48918 41042 314
5588 2190 238
32832 30000 285
8484 2192 262
1010 1021 156
4848 2829 238
310 102 128
494 494 49
4818 2828 238
1592 4019 238
57699 50128 340
673 144 145
586 3 144
58 230 125
689 950 179
