1 10 20
100 200 125
201 210 89
900 1000 174
1001 2000 182
2001 3000 217
3001 4000 238
4001 5000 215
5001 6000 236
8431 1695 262
3428 6768 262
5790 6900 262
2572 5556 238
8018 322 262
2078 6223 262
5333 4535 210
8228 2302 262
5123 2965 238
9137 3996 262
5782 4745 236
2757 2905 173
9860 4837 262
7968 5954 262
6518 15 262
6071 6757 262
1641 5938 238
9524 1061 262
4412 3276 238
5491 3376 238
7838 9307 260
1011 7480 262
228 5196 238
4745 3888 215
4008 7774 262
4956 7154 262
4255 3175 238
2157 1525 180
489 2988 217
641 7044 262
9025 3890 262
8448 1230 262
4971 1832 238
4736 2093 238
5408 4455 210
7692 5261 262
5073 6121 236
620 3410 217
4644 6335 262
3625 8053 262
4891 3678 238
10 3280 217
6886 9978 260
8245 3709 262
8229 7961 252
302 1770 182
3106 4256 238
3652 2376 217
636 5104 238
2071 4779 238
9567 2627 262
6251 8099 257
2027 4584 238
9486 6101 262
1078 5431 238
7311 9127 252
9538 8497 260
4513 2198 238
925 6228 262
1652 4977 238
5395 3243 238
4583 85 238
1789 6911 262
7300 4265 262
8650 1356 262
6510 2995 262
329 1613 182
2268 3620 217
8603 8905 216
6246 6773 244
2744 7605 262
3323 5864 238
3050 9131 262
1076 6947 262
1677 3854 238
3890 7362 262
4378 6443 262
4961 7939 262
5986 8792 262
5433 8999 262
3711 2533 238
3838 865 238
3590 8222 262
1940 1319 180
370 9297 262
966 5797 238
540 794 171
2248 3473 217
2067 7002 262
5067 1426 238
2596 2858 191
9519 1629 262
4516 4295 215
5056 5869 236
6340 4056 262
8586 8542 172
7915 2283 262
7998 9371 260
4675 8279 262
9845 5238 262
1 1 1
443572 820221 509
399720 648213 509
557382 446196 470
996582 213005 525
929085 779064 525
897047 531313 525
344425 745034 509
141297 400699 443
987309 180134 525
636581 374854 509
936162 78331 525
896541 899906 370
728413 373956 509
546705 266994 470
294316 503576 449
934902 769196 525
703058 773209 504
949511 373643 525
814822 833796 450
911110 586246 525
628042 574434 509
183123 653799 509
1203 376899 443
146798 114961 375
889215 420109 525
979175 588244 525
397514 203952 443
760153 788216 468
956136 941966 414
729021 12672 509
612651 239168 470
707340 315441 509
945576 407961 525
797930 483688 509
469308 988230 525
40885 425797 449
135836 322796 443
123538 228923 386
457353 989889 525
358217 300877 441
198794 864141 525
159535 232020 443
927076 901370 476
29741 35105 311
935484 189897 525
300911 965757 525
273239 830489 509
412387 725047 509
336139 692036 509
534738 817915 509
542371 138625 470
800982 396722 509
360183 538973 470
395273 679916 509
889713 46056 525
429478 280475 449
929400 822456 525
934222 110552 525
497152 578511 470
138995 111921 349
828461 815221 450
290637 356009 441
32790 425468 449
315454 811252 509
114193 504643 449
541559 646050 509
80354 398470 443
947149 699980 525
268302 428295 449
885104 185433 525
972661 833702 525
346457 729114 509
223529 369527 443
847891 789298 525
912188 105311 525
948863 100701 525
