......................
----------------------------------------------------------------------
Ran 22 tests in 0.837s

OK
Name             Stmts   Miss Branch BrPart  Cover   Missing
------------------------------------------------------------
Collatz.py        1065      0     26      0   100%
TestCollatz.py      92      0      0      0   100%
------------------------------------------------------------
TOTAL             1157      0     26      0   100%
