........................
----------------------------------------------------------------------
Ran 24 tests in 0.644s

OK
Name             Stmts   Miss Branch BrPart  Cover   Missing
------------------------------------------------------------
Collatz.py          44      0     18      0   100%
TestCollatz.py     105      0      0      0   100%
------------------------------------------------------------
TOTAL              149      0     18      0   100%
