1 10 20
100 200 125
201 210 89
900 1000 174
6 12 20
8 33 112
1 8 17
1 50 112
11 37 112
15 87 116
8 37 112
4 14 20
2 87 116
135 135 42
21 57 113
10 92 116
2 92 116
26 234 128
23 79 116
34 84 116
36 53 110
41 305 128
6 269 128
35 226 125
50 226 125
25 145 122
48 421 144
25 250 128
25 142 122
8 360 144
31 146 122
1 952 179
85 1230 182
21 1812 182
15 43 112
67 1631 182
88 1552 182
253 2338 183
290 1144 179
229 1396 182
3 3243 217
175 1874 182
39 378 144
448 986 179
373 3328 217
127 3125 217
390 5721 238
149 1324 182
8 4157 238
151 307 128
120 7458 262
595 8113 262
29 6359 262
682 4787 238
6 506 144
12 235 128
20 841 171
9 788 171
13 91 116
23 1286 182
28 496 144
22 88 116
24 1110 179
16 1250 182
36 663 145
36 88 116
14 579 144
23 131 122
17 243 128
17 17 13
30 503 144
1331 28 182
47 121 119
41 655 145
4 1391 182
42 193 125
15 77 116
26 1493 182
15 286 128
90588 36 351
9646 24 262
93013 24 351
13225 36 268
4079 84 238
44418 36 324
68141 36 340
85056 60 351
48580 120 324
159 12 122
27818 132 308
32002 120 308
19107 180 279
36290 120 324
90576 180 351
92341 12 351
23137 192 279
36190 48 324
52445 240 324
32185 48 308
81519 96 351
62051 180 340
85769 192 351
10908 24 262
9681 264 262
32 4 112
12 29 112
86 25 116
86 46 116
68 99 119
153 19 122
134 60 122
151 114 122
77 89 111
34 43 110
131 209 125
57 169 122
15 66 113
268 113 128
1293 137 182
262 2791 209
339 191 144
21 96002 351
277 210 128
301 383 144
158 220 125
198 128 125
248 278 123
173 239 128
296 434 144
69 69 15
219641 828215 509
141959 919508 525
866695 819597 525
82023 673433 509
159742 996585 525
830959 559094 509
