................
----------------------------------------------------------------------
Ran 16 tests in 10.038s

OK
Name             Stmts   Miss Branch BrPart  Cover   Missing
------------------------------------------------------------
Collatz.py          32      0     10      0   100%
TestCollatz.py      74      0      0      0   100%
------------------------------------------------------------
TOTAL              106      0     10      0   100%
