1 10 20
100 200 125
201 210 89
900 1000 174
100 100 26
900 800 179
1000 1000 112
10000 1 262
999 998 50
1 20 21
1 9999 262
9999 1 262
11 9 20
1998 2020 144
446 99999 351
99999 99999 227
99999 100000 227
100000 99999 227
1100 10000 262
22 33 112
11 44 112
3 9 20
20 400 144
200 40000 324
110000 1 354
999999 999999 259
1653 1563 167
4 20 21
11 2 20
1 1 1
2 2 2
9 99 119
99999 9999 351
1 100000 351
8888 9999 260
863 1453 182
1776 2020 175
1999 2000 113
440 444 116
444 444 72
1 100 119
1 1000 179
99 99 26
100 99 26
101 99 26
102 99 26
103 99 88
1945 1936 100
1914 1918 175
2017 2021 113
7 7 17
99999 1 351
1 9 20
9 99 119
9 999 179
9 9999 262
9 99999 351
99999 9 351
9999 9 262
999 9 179
99 9 119
9 1 20
1998 2020 144
11 2 20
1998 2 182
420 69 144
99 99 26
99 100 26
99 1000 179
999 100 179
25 25 24
250 250 110
2500 2500 28
25000 25000 127
9999 9999 92
1 2 2
2 1 2
1053 1453 182
99999 100000 227
100000 99999 227
888888 888888 119
777777 777777 155
666666 666666 155
555555 555555 147
444444 444444 118
333333 333333 154
222222 222222 117
111111 111111 116
999998 999998 259
123456 123456 62
654321 654321 186
2020 2020 64
88 88 18
59 2020 182
2020 59 182
98 98 26
1998 1998 51
1998 98 182
98 1998 182
109876 109876 155
1102 1998 182
