....................
----------------------------------------------------------------------
Ran 20 tests in 0.984s

OK
Name             Stmts   Miss Branch BrPart  Cover   Missing
------------------------------------------------------------
Collatz.py          40      0     20      0   100%
TestCollatz.py      83      0      0      0   100%
------------------------------------------------------------
TOTAL              123      0     20      0   100%
